module masterclass

go 1.13

require (
	github.com/dgrijalva/jwt-go v3.2.0+incompatible
	github.com/gin-gonic/gin v1.7.7
	github.com/go-playground/validator/v10 v10.11.0
	github.com/golang/mock v1.6.0
	github.com/google/uuid v1.3.0
	github.com/lib/pq v1.10.6
	github.com/o1egl/paseto v1.0.0
	github.com/spf13/viper v1.12.0
	github.com/stretchr/testify v1.7.1
	github.com/techschool/simplebank v0.0.0-20220429190511-1ab553c99bb2 // indirect
	golang.org/x/crypto v0.0.0-20220525230936-793ad666bf5e
)
